^D:\PROJECTS\GFXPROG\OBLIG2\OBLIG2\PELLET.CPP
/c /I"D:\PROJECTS\CONSOLEAPPLICATION1\DEPENDENCIES\SDL2-2.0.7\INCLUDE" /ID:\PROJECTS\CONSOLEAPPLICATION1 /Zi /nologo /W3 /WX- /diagnostics:classic /sdl /Ox /Oy- /GL /D WIN32 /D NDEBUG /D _CONSOLE /D _UNICODE /D UNICODE /Gm- /EHsc /MD /GS /Gy /fp:precise /permissive- /Zc:wchar_t /Zc:forScope /Zc:inline /Fo"RELEASE\\" /Fd"RELEASE\VC141.PDB" /Gd /TP /analyze- D:\PROJECTS\GFXPROG\OBLIG2\OBLIG2\PELLET.CPP
^D:\PROJECTS\GFXPROG\OBLIG2\OBLIG2\ENTITY.CPP
/c /I"D:\PROJECTS\CONSOLEAPPLICATION1\DEPENDENCIES\SDL2-2.0.7\INCLUDE" /ID:\PROJECTS\CONSOLEAPPLICATION1 /Zi /nologo /W3 /WX- /diagnostics:classic /sdl /Ox /Oy- /GL /D WIN32 /D NDEBUG /D _CONSOLE /D _UNICODE /D UNICODE /Gm- /EHsc /MD /GS /Gy /fp:precise /permissive- /Zc:wchar_t /Zc:forScope /Zc:inline /Fo"RELEASE\\" /Fd"RELEASE\VC141.PDB" /Gd /TP /analyze- D:\PROJECTS\GFXPROG\OBLIG2\OBLIG2\ENTITY.CPP
^D:\PROJECTS\GFXPROG\OBLIG2\OBLIG2\INIT.CPP
/c /I"D:\PROJECTS\CONSOLEAPPLICATION1\DEPENDENCIES\SDL2-2.0.7\INCLUDE" /ID:\PROJECTS\CONSOLEAPPLICATION1 /Zi /nologo /W3 /WX- /diagnostics:classic /sdl /Ox /Oy- /GL /D WIN32 /D NDEBUG /D _CONSOLE /D _UNICODE /D UNICODE /Gm- /EHsc /MD /GS /Gy /fp:precise /permissive- /Zc:wchar_t /Zc:forScope /Zc:inline /Fo"RELEASE\\" /Fd"RELEASE\VC141.PDB" /Gd /TP /analyze- D:\PROJECTS\GFXPROG\OBLIG2\OBLIG2\INIT.CPP
^D:\PROJECTS\GFXPROG\OBLIG2\OBLIG2\PACMAN.CPP
/c /I"D:\PROJECTS\CONSOLEAPPLICATION1\DEPENDENCIES\SDL2-2.0.7\INCLUDE" /ID:\PROJECTS\CONSOLEAPPLICATION1 /Zi /nologo /W3 /WX- /diagnostics:classic /sdl /Ox /Oy- /GL /D WIN32 /D NDEBUG /D _CONSOLE /D _UNICODE /D UNICODE /Gm- /EHsc /MD /GS /Gy /fp:precise /permissive- /Zc:wchar_t /Zc:forScope /Zc:inline /Fo"RELEASE\\" /Fd"RELEASE\VC141.PDB" /Gd /TP /analyze- D:\PROJECTS\GFXPROG\OBLIG2\OBLIG2\PACMAN.CPP
^D:\PROJECTS\GFXPROG\OBLIG2\OBLIG2\SHADERS.CPP
/c /I"D:\PROJECTS\CONSOLEAPPLICATION1\DEPENDENCIES\SDL2-2.0.7\INCLUDE" /ID:\PROJECTS\CONSOLEAPPLICATION1 /Zi /nologo /W3 /WX- /diagnostics:classic /sdl /Ox /Oy- /GL /D WIN32 /D NDEBUG /D _CONSOLE /D _UNICODE /D UNICODE /Gm- /EHsc /MD /GS /Gy /fp:precise /permissive- /Zc:wchar_t /Zc:forScope /Zc:inline /Fo"RELEASE\\" /Fd"RELEASE\VC141.PDB" /Gd /TP /analyze- D:\PROJECTS\GFXPROG\OBLIG2\OBLIG2\SHADERS.CPP
^D:\PROJECTS\GFXPROG\OBLIG2\OBLIG2\SOURCE.CPP
/c /I"D:\PROJECTS\CONSOLEAPPLICATION1\DEPENDENCIES\SDL2-2.0.7\INCLUDE" /ID:\PROJECTS\CONSOLEAPPLICATION1 /Zi /nologo /W3 /WX- /diagnostics:classic /sdl /Ox /Oy- /GL /D WIN32 /D NDEBUG /D _CONSOLE /D _UNICODE /D UNICODE /Gm- /EHsc /MD /GS /Gy /fp:precise /permissive- /Zc:wchar_t /Zc:forScope /Zc:inline /Fo"RELEASE\\" /Fd"RELEASE\VC141.PDB" /Gd /TP /analyze- D:\PROJECTS\GFXPROG\OBLIG2\OBLIG2\SOURCE.CPP
^D:\PROJECTS\GFXPROG\OBLIG2\OBLIG2\TEXTURE.CPP
/c /I"D:\PROJECTS\CONSOLEAPPLICATION1\DEPENDENCIES\SDL2-2.0.7\INCLUDE" /ID:\PROJECTS\CONSOLEAPPLICATION1 /Zi /nologo /W3 /WX- /diagnostics:classic /sdl /Ox /Oy- /GL /D WIN32 /D NDEBUG /D _CONSOLE /D _UNICODE /D UNICODE /Gm- /EHsc /MD /GS /Gy /fp:precise /permissive- /Zc:wchar_t /Zc:forScope /Zc:inline /Fo"RELEASE\\" /Fd"RELEASE\VC141.PDB" /Gd /TP /analyze- D:\PROJECTS\GFXPROG\OBLIG2\OBLIG2\TEXTURE.CPP
^D:\PROJECTS\GFXPROG\OBLIG2\OBLIG2\TILEMAP.CPP
/c /I"D:\PROJECTS\CONSOLEAPPLICATION1\DEPENDENCIES\SDL2-2.0.7\INCLUDE" /ID:\PROJECTS\CONSOLEAPPLICATION1 /Zi /nologo /W3 /WX- /diagnostics:classic /sdl /Ox /Oy- /GL /D WIN32 /D NDEBUG /D _CONSOLE /D _UNICODE /D UNICODE /Gm- /EHsc /MD /GS /Gy /fp:precise /permissive- /Zc:wchar_t /Zc:forScope /Zc:inline /Fo"RELEASE\\" /Fd"RELEASE\VC141.PDB" /Gd /TP /analyze- D:\PROJECTS\GFXPROG\OBLIG2\OBLIG2\TILEMAP.CPP
